{
  "formatVersion": 1,
  "database": {
    "version": 1,
    "identityHash": "d049fb7a236c33f78d8ac0606bb98f51",
    "entities": [
      {
        "tableName": "HistoryItem",
        "createSql": "CREATE TABLE IF NOT EXISTS `${TABLE_NAME}` (`id` INTEGER PRIMARY KEY AUTOINCREMENT NOT NULL, `sourceLanguageName` TEXT NOT NULL, `sourceLanguageCode` TEXT NOT NULL, `targetLanguageName` TEXT NOT NULL, `targetLanguageCode` TEXT NOT NULL, `insertedText` TEXT NOT NULL, `translatedText` TEXT NOT NULL)",
        "fields": [
          {
            "fieldPath": "id",
            "columnName": "id",
            "affinity": "INTEGER",
            "notNull": true
          },
          {
            "fieldPath": "sourceLanguageName",
            "columnName": "sourceLanguageName",
            "affinity": "TEXT",
            "notNull": true
          },
          {
            "fieldPath": "sourceLanguageCode",
            "columnName": "sourceLanguageCode",
            "affinity": "TEXT",
            "notNull": true
          },
          {
            "fieldPath": "targetLanguageName",
            "columnName": "targetLanguageName",
            "affinity": "TEXT",
            "notNull": true
          },
          {
            "fieldPath": "targetLanguageCode",
            "columnName": "targetLanguageCode",
            "affinity": "TEXT",
            "notNull": true
          },
          {
            "fieldPath": "insertedText",
            "columnName": "insertedText",
            "affinity": "TEXT",
            "notNull": true
          },
          {
            "fieldPath": "translatedText",
            "columnName": "translatedText",
            "affinity": "TEXT",
            "notNull": true
          }
        ],
        "primaryKey": {
          "columnNames": [
            "id"
          ],
          "autoGenerate": true
        },
        "indices": [],
        "foreignKeys": []
      }
    ],
    "views": [],
    "setupQueries": [
      "CREATE TABLE IF NOT EXISTS room_master_table (id INTEGER PRIMARY KEY,identity_hash TEXT)",
      "INSERT OR REPLACE INTO room_master_table (id,identity_hash) VALUES(42, 'd049fb7a236c33f78d8ac0606bb98f51')"
    ]
  }
}
